### Start fil: /Users/tobiasbrixen/Dropbox/AU/MPS/MPSProgrammer/formatter/abc.txt ### 
======================  
head head TEXT header
====================== 
bod bod TEXT body
---------------------- 
### End of File: Thanks Folks! ###
 